     Sáng.              Chiều         Tối

T2 : Cong ty       Cong ty           HA

T3 : Viettel      Viettel            Ôn Bài

T4 : Cong ty       Cong ty           HA /Trường

T5 : Viettel      Viettel            Ôn Bài

T6 : Cong ty       Cong ty           HA /Trường

T7 : Viettel       Viettel           Ôn Bài

CN : KtMoi         KtMoi             KtMoi 